area	x1	z1	x2	z2	useClipRect	clipRectX1	clipRectZ1	clipRectX2	clipRectZ2	envFlags	envFlagsExclude	useOrigin	originX	originZ	compositeX1	compositeZ1	compositeX2	compositeZ2	compositeName	isolated	allowMap	internal	allowRadarTerrain	eventRequired
s	f	f	f	f	b[0]	f[0]	f[0]	f[0]	f[0]	i[0xff]	i[0x00]	b[0]	f[0]	f[0]	f[0]	f[0]	f[0]	f[0]	s	b[0]	b[1]	b[1]	b[1]	s
endor_1_1	-8192	-8192	-6144	-6144																				
endor_1_2	-8192	-6144	-6144	-4096																				
endor_1_3	-8192	-4096	-6144	-2048																				
endor_1_4	-8192	-2048	-6144	0																				
endor_1_5	-8192	0	-6144	2048																				
endor_1_6	-8192	2048	-6144	4096																				
endor_1_7	-8192	4096	-6144	6144																				
endor_1_8	-8192	6144	-6144	8192																				
endor_2_1	-6144	-8192	-4096	-6144																				
endor_2_2	-6144	-6144	-4096	-4096																				
endor_2_3	-6144	-4096	-4096	-2048																				
endor_2_4	-6144	-2048	-4096	0																				
endor_2_5	-6144	0	-4096	2048																				
endor_2_6	-6144	2048	-4096	4096																				
endor_2_7	-6144	4096	-4096	6144																				
endor_2_8	-6144	6144	-4096	8192																				
endor_3_1	-4096	-8192	-2048	-6144																				
endor_3_2	-4096	-6144	-2048	-4096																				
endor_3_3	-4096	-4096	-2048	-2048																				
endor_3_4	-4096	-2048	-2048	0																				
endor_3_5	-4096	0	-2048	2048																				
endor_3_6	-4096	2048	-2048	4096																				
endor_3_7	-4096	4096	-2048	6144																				
endor_3_8	-4096	6144	-2048	8192																				
endor_4_1	-2048	-8192	0	-6144																				
endor_4_2	-2048	-6144	0	-4096																				
loveday_endor	-2048	-6144	0	-4096																				loveday
endor_4_3	-2048	-4096	0	-2048																				
endor_4_4	-2048	-2048	0	0																				
endor_4_5	-2048	0	0	2048																				
endor_4_6	-2048	2048	0	4096
endor_4_7	-2048	4096	0	6144
endor_4_8	-2048	6144	0	8192
endor_5_1	0	-8192	2048	-6144
endor_5_2	0	-6144	2048	-4096
endor_5_3	0	-4096	2048	-2048
endor_5_4	0	-2048	2048	0
endor_5_5	0	0	2048	2048
endor_5_6	0	2048	2048	4096
endor_5_7	0	4096	2048	6144
endor_5_8	0	6144	2048	8192
endor_6_1	2048	-8192	4096	-6144
endor_6_2	2048	-6144	4096	-4096
endor_6_3	2048	-4096	4096	-2048
endor_6_4	2048	-2048	4096	0
endor_6_5	2048	0	4096	2048
endor_6_6	2048	2048	4096	4096
endor_6_7	2048	4096	4096	6144
endor_6_8	2048	6144	4096	8192
endor_7_1	4096	-8192	6144	-6144
endor_7_2	4096	-6144	6144	-4096
endor_7_3	4096	-4096	6144	-2048
endor_7_4	4096	-2048	6144	0
endor_7_5	4096	0	6144	2048
endor_7_6	4096	2048	6144	4096
endor_7_7	4096	4096	6144	6144
endor_7_8	4096	6144	6144	8192
endor_8_1	6144	-8192	8192	-6144
endor_8_2	6144	-6144	8192	-4096
endor_8_3	6144	-4096	8192	-2048
endor_8_4	6144	-2048	8192	0
endor_8_5	6144	0	8192	2048
endor_8_6	6144	2048	8192	4096
endor_8_7	6144	4096	8192	6144
endor_8_8	6144	6144	8192	8192
endor_1_1_ws	-8192	-8192	-6144	-6144																				
endor_1_2_ws	-8192	-6144	-6144	-4096																				
endor_1_3_ws	-8192	-4096	-6144	-2048																				
endor_1_4_ws	-8192	-2048	-6144	0																				
endor_1_5_ws	-8192	0	-6144	2048																				
endor_1_6_ws	-8192	2048	-6144	4096																				
endor_1_7_ws	-8192	4096	-6144	6144																				
endor_1_8_ws	-8192	6144	-6144	8192																				
endor_2_1_ws	-6144	-8192	-4096	-6144																				
endor_2_2_ws	-6144	-6144	-4096	-4096																				
endor_2_3_ws	-6144	-4096	-4096	-2048																				
endor_2_4_ws	-6144	-2048	-4096	0																				
endor_2_5_ws	-6144	0	-4096	2048																				
endor_2_6_ws	-6144	2048	-4096	4096																				
endor_2_7_ws	-6144	4096	-4096	6144																				
endor_2_8_ws	-6144	6144	-4096	8192																				
endor_3_1_ws	-4096	-8192	-2048	-6144																				
endor_3_2_ws	-4096	-6144	-2048	-4096																				
endor_3_3_ws	-4096	-4096	-2048	-2048																				
endor_3_4_ws	-4096	-2048	-2048	0																				
endor_3_5_ws	-4096	0	-2048	2048																				
endor_3_6_ws	-4096	2048	-2048	4096																				
endor_3_7_ws	-4096	4096	-2048	6144																				
endor_3_8_ws	-4096	6144	-2048	8192																				
endor_4_1_ws	-2048	-8192	0	-6144																				
endor_4_2_ws	-2048	-6144	0	-4096																				
endor_4_3_ws	-2048	-4096	0	-2048																				
endor_4_4_ws	-2048	-2048	0	0																				
endor_4_5_ws	-2048	0	0	2048																				
endor_4_6_ws	-2048	2048	0	4096
endor_4_7_ws	-2048	4096	0	6144
endor_4_8_ws	-2048	6144	0	8192
endor_5_1_ws	0	-8192	2048	-6144
endor_5_2_ws	0	-6144	2048	-4096
endor_5_3_ws	0	-4096	2048	-2048
endor_5_4_ws	0	-2048	2048	0
endor_5_5_ws	0	0	2048	2048
endor_5_6_ws	0	2048	2048	4096
endor_5_7_ws	0	4096	2048	6144
endor_5_8_ws	0	6144	2048	8192
endor_6_1_ws	2048	-8192	4096	-6144
endor_6_2_ws	2048	-6144	4096	-4096
endor_6_3_ws	2048	-4096	4096	-2048
endor_6_4_ws	2048	-2048	4096	0
endor_6_5_ws	2048	0	4096	2048
endor_6_6_ws	2048	2048	4096	4096
endor_6_7_ws	2048	4096	4096	6144
endor_6_8_ws	2048	6144	4096	8192
endor_7_1_ws	4096	-8192	6144	-6144
endor_7_2_ws	4096	-6144	6144	-4096
endor_7_3_ws	4096	-4096	6144	-2048
endor_7_4_ws	4096	-2048	6144	0
endor_7_5_ws	4096	0	6144	2048
endor_7_6_ws	4096	2048	6144	4096
endor_7_7_ws	4096	4096	6144	6144
endor_7_8_ws	4096	6144	6144	8192
endor_8_1_ws	6144	-8192	8192	-6144
endor_8_2_ws	6144	-6144	8192	-4096
endor_8_3_ws	6144	-4096	8192	-2048
endor_8_4_ws	6144	-2048	8192	0
endor_8_5_ws	6144	0	8192	2048
endor_8_6_ws	6144	2048	8192	4096
endor_8_7_ws	6144	4096	8192	6144
endor_8_8_ws	6144	6144	8192	8192
